{
  "kind": "collectionType",
  "collectionName": "blogposts",
  "info": {
    "name": "Blogposts"
  },
  "options": {
    "increments": true,
    "timestamps": true,
    "draftAndPublish": false
  },
  "pluginOptions": {},
  "attributes": {
    "Title": {
      "type": "string",
      "required": true
    },
    "body": {
      "type": "richtext",
      "required": true
    },
    "subcategories": {
      "via": "blogposts",
      "collection": "subcategory"
    },
    "categories": {
      "via": "blogposts",
      "collection": "category"
    }
  }
}
